Analysis of intrinsic vowel duration in Northwestern Italian
…
bm_1_get <- get_prior(
  bm_1_f,
  data = ita_egg,
  family = gaussian,
) |> as_tibble()
bm_1_get

# A tibble: 34 × 10
   prior                  class coef  group resp  dpar  nlpar lb    ub    source
   <chr>                  <chr> <chr> <chr> <chr> <chr> <chr> <chr> <chr> <chr> 
 1 "lkj(1)"               cor   ""    ""    ""    ""    ""    ""    ""    defau…
 2 ""                     cor   ""    "spe… ""    ""    ""    ""    ""    defau…
 3 "student_t(3, 0, 2.5)" sigma ""    ""    ""    ""    ""    "0"   ""    defau…
 4 ""                     b     ""    ""    ""    ""    "a"   ""    ""    defau…
 5 ""                     b     "vow… ""    ""    ""    "a"   ""    ""    defau…
 6 ""                     b     "vow… ""    ""    ""    "a"   ""    ""    defau…
 7 ""                     b     "vow… ""    ""    ""    "a"   ""    ""    defau…
 8 ""                     b     "vow… ""    ""    ""    "a"   ""    ""    defau…
 9 ""                     b     "vow… ""    ""    ""    "a"   ""    ""    defau…
10 "student_t(3, 0, 2.5)" sd    ""    ""    ""    ""    "a"   "0"   ""    defau…
# ℹ 24 more rows
…
